02_STCC1_Spartan6_Module/Firmware/litex_with_ise/Litex/stcc1_xc6slx25/simulation/bt656.vcd
$scope module BT656SyncGen $end
$var wire 1 ! sink_ready $end
$var wire 8 " source_payload_data $end
$var wire 11 # h_count $end
$var wire 10 $ v_count $end
$var wire 1 % pixel_ready $end
$var wire 8 & y $end
$var wire 8 ' cb $end
$var wire 8 ( cr $end
$var wire 24 ) YCbCr $end
$var wire 1 * H $end
$var wire 1 + V $end
$var wire 1 , F $end
$var wire 1 - EAV $end
$var wire 1 . H_BLANK $end
$var wire 1 / SAV $end
$var wire 1 0 DAL $end
$var wire 1 1 VAP $end
$var wire 3 2 pix_phase $end
$var wire 10 3 row_cnt $end
$var wire 8 4 xy $end
$var wire 104 5 state $end
$var wire 120 6 next_state $end
$var wire 1 7 sys_clk $end
$enddefinitions $end
$dumpvars
$end
#0
0!
b00000000 "
b00000000000 #
b0000000000 $
0%
b00000000 &
b00000000 '
b00000000 (
b000000000000000000000000 )
0*
0+
0,
0-
0.
0/
00
01
b000 2
b0000000000 3
b00000000 4
b0101001101000101010011100100010001011111010001010100000101010110010111110100011001000110 5
b00110000001110100101001101000101010011100100010001011111010001010100000101010110010111110100011001000110 6
07
1*
1+
b001100010011101001010011010001010100111001000100010111110100010101000001010101100101111100110000001100000101111100110001 6
1-
b11111111 "
b10111001 4
#13500000.0
b11110000 (
b01010011010001010100111001000100010111110100010101000001010101100101111100110000001100000101111100110001 5
b001100100011101001010011010001010100111001000100010111110100010101000001010101100101111100110000001100000101111100110010 6
b00000000 "
17
b00000000001 #
b01010010 &
b01011010 '
#27000000.0
07
#40500000.0
b010100100101101011110000 )
17
b00000000010 #
b01010011010001010100111001000100010111110100010101000001010101100101111100110000001100000101111100110010 5
b00110011001110100101001101000101010011100100010001011111010001010100000101010110010111110101100001011001 6
#54000000.0
07
#67500000.0
b10111001 "
17
b00000000011 #
b0101001101000101010011100100010001011111010001010100000101010110010111110101100001011001 5
b001101000011101001001000010111110100001001001100010000010100111001001011 6
#81000000.0
07
#94500000.0
b00010000 "
17
b00000000100 #
0*
b01001000010111110100001001001100010000010100111001001011 5
0-
1.
b10100100 4
#108000000.0
07
#121500000.0
17
b00000000101 #
#135000000.0
07
#148500000.0
b10000000 "
17
b00000000110 #
#162000000.0
07
#175500000.0
17
b00000000111 #
#189000000.0
07
#202500000.0
b00010000 "
17
b00000001000 #
#216000000.0
07
#229500000.0
17
b00000001001 #
#243000000.0
07
#256500000.0
b10000000 "
17
b00000001010 #
#270000000.0
07
#283500000.0
17
b00000001011 #
#297000000.0
07
#310500000.0
b00010000 "
17
b00000001100 #
#324000000.0
07
#337500000.0
17
b00000001101 #
#351000000.0
07
#364500000.0
b10000000 "
17
b00000001110 #
#378000000.0
07
#391500000.0
17
b00000001111 #
#405000000.0
07
#418500000.0
b00010000 "
17
b00000010000 #
#432000000.0
07
#445500000.0
17
b00000010001 #
#459000000.0
07
#472500000.0
b10000000 "
17
b00000010010 #
#486000000.0
07
#499500000.0
17
b00000010011 #
#513000000.0
07
#526500000.0
b00010000 "
17
b00000010100 #
#540000000.0
07
#553500000.0
17
b00000010101 #
#567000000.0
07
#580500000.0
b10000000 "
17
b00000010110 #
#594000000.0
07
#607500000.0
17
b00000010111 #
#621000000.0
07
#634500000.0
b00010000 "
17
b00000011000 #
#648000000.0
07
#661500000.0
17
b00000011001 #
#675000000.0
07
#688500000.0
b10000000 "
17
b00000011010 #
#702000000.0
07
#715500000.0
17
b00000011011 #
#729000000.0
07
#742500000.0
b00010000 "
17
b00000011100 #
#756000000.0
07
#769500000.0
17
b00000011101 #
#783000000.0
07
#796500000.0
b10000000 "
17
b00000011110 #
#810000000.0
07
#823500000.0
17
b00000011111 #
#837000000.0
07
#850500000.0
b00010000 "
17
b00000100000 #
#864000000.0
07
#877500000.0
17
b00000100001 #
#891000000.0
07
#904500000.0
b10000000 "
17
b00000100010 #
#918000000.0
07
#931500000.0
17
b00000100011 #
#945000000.0
07
#958500000.0
b00010000 "
17
b00000100100 #
#972000000.0
07
#985500000.0
17
b00000100101 #
#999000000.0
07
#1012500000.0
b10000000 "
17
b00000100110 #
#1026000000.0
07
#1039500000.0
17
b00000100111 #
#1053000000.0
07
#1066500000.0
b00010000 "
17
b00000101000 #
#1080000000.0
07
#1093500000.0
17
b00000101001 #
#1107000000.0
07
#1120500000.0
b10000000 "
17
b00000101010 #
#1134000000.0
07
#1147500000.0
17
b00000101011 #
#1161000000.0
07
#1174500000.0
b00010000 "
17
b00000101100 #
#1188000000.0
07
#1201500000.0
17
b00000101101 #
#1215000000.0
07
#1228500000.0
b10000000 "
17
b00000101110 #
#1242000000.0
07
#1255500000.0
17
b00000101111 #
#1269000000.0
07
#1282500000.0
b00010000 "
17
b00000110000 #
#1296000000.0
07
#1309500000.0
17
b00000110001 #
#1323000000.0
07
#1336500000.0
b10000000 "
17
b00000110010 #
#1350000000.0
07
#1363500000.0
17
b00000110011 #
#1377000000.0
07
#1390500000.0
b00010000 "
17
b00000110100 #
#1404000000.0
07
#1417500000.0
17
b00000110101 #
#1431000000.0
07
#1444500000.0
b10000000 "
17
b00000110110 #
#1458000000.0
07
#1471500000.0
17
b00000110111 #
#1485000000.0
07
#1498500000.0
b00010000 "
17
b00000111000 #
#1512000000.0
07
#1525500000.0
17
b00000111001 #
#1539000000.0
07
#1552500000.0
b10000000 "
17
b00000111010 #
#1566000000.0
07
#1579500000.0
17
b00000111011 #
#1593000000.0
07
#1606500000.0
b00010000 "
17
b00000111100 #
#1620000000.0
07
#1633500000.0
17
b00000111101 #
#1647000000.0
07
#1660500000.0
b10000000 "
17
b00000111110 #
#1674000000.0
07
#1687500000.0
17
b00000111111 #
#1701000000.0
07
#1714500000.0
b00010000 "
17
b00001000000 #
#1728000000.0
07
#1741500000.0
17
b00001000001 #
#1755000000.0
07
#1768500000.0
b10000000 "
17
b00001000010 #
#1782000000.0
07
#1795500000.0
17
b00001000011 #
#1809000000.0
07
#1822500000.0
b00010000 "
17
b00001000100 #
#1836000000.0
07
#1849500000.0
17
b00001000101 #
#1863000000.0
07
#1876500000.0
b10000000 "
17
b00001000110 #
#1890000000.0
07
#1903500000.0
17
b00001000111 #
#1917000000.0
07
#1930500000.0
b00010000 "
17
b00001001000 #
#1944000000.0
07
#1957500000.0
17
b00001001001 #
#1971000000.0
07
#1984500000.0
b10000000 "
17
b00001001010 #
#1998000000.0
07
#2011500000.0
17
b00001001011 #
#2025000000.0
07
#2038500000.0
b00010000 "
17
b00001001100 #
#2052000000.0
07
#2065500000.0
17
b00001001101 #
#2079000000.0
07
#2092500000.0
b10000000 "
17
b00001001110 #
#2106000000.0
07
#2119500000.0
17
b00001001111 #
#2133000000.0
07
#2146500000.0
b00010000 "
17
b00001010000 #
#2160000000.0
07
#2173500000.0
17
b00001010001 #
#2187000000.0
07
#2200500000.0
b10000000 "
17
b00001010010 #
#2214000000.0
07
#2227500000.0
17
b00001010011 #
#2241000000.0
07
#2254500000.0
b00010000 "
17
b00001010100 #
#2268000000.0
07
#2281500000.0
17
b00001010101 #
#2295000000.0
07
#2308500000.0
b10000000 "
17
b00001010110 #
#2322000000.0
07
#2335500000.0
17
b00001010111 #
#2349000000.0
07
#2362500000.0
b00010000 "
17
b00001011000 #
#2376000000.0
07
#2389500000.0
17
b00001011001 #
#2403000000.0
07
#2416500000.0
b10000000 "
17
b00001011010 #
#2430000000.0
07
#2443500000.0
17
b00001011011 #
#2457000000.0
07
#2470500000.0
b00010000 "
17
b00001011100 #
#2484000000.0
07
#2497500000.0
17
b00001011101 #
#2511000000.0
07
#2524500000.0
b10000000 "
17
b00001011110 #
#2538000000.0
07
#2551500000.0
17
b00001011111 #
#2565000000.0
07
#2578500000.0
b00010000 "
17
b00001100000 #
#2592000000.0
07
#2605500000.0
17
b00001100001 #
#2619000000.0
07
#2632500000.0
b10000000 "
17
b00001100010 #
#2646000000.0
07
#2659500000.0
17
b00001100011 #
#2673000000.0
07
#2686500000.0
b00010000 "
17
b00001100100 #
#2700000000.0
07
#2713500000.0
17
b00001100101 #
#2727000000.0
07
#2740500000.0
b10000000 "
17
b00001100110 #
#2754000000.0
07
#2767500000.0
17
b00001100111 #
#2781000000.0
07
#2794500000.0
b00010000 "
17
b00001101000 #
#2808000000.0
07
#2821500000.0
17
b00001101001 #
#2835000000.0
07
#2848500000.0
b10000000 "
17
b00001101010 #
#2862000000.0
07
#2875500000.0
17
b00001101011 #
#2889000000.0
07
#2902500000.0
b00010000 "
17
b00001101100 #
#2916000000.0
07
#2929500000.0
17
b00001101101 #
#2943000000.0
07
#2956500000.0
b10000000 "
17
b00001101110 #
#2970000000.0
07
#2983500000.0
17
b00001101111 #
#2997000000.0
07
#3010500000.0
b00010000 "
17
b00001110000 #
#3024000000.0
07
#3037500000.0
17
b00001110001 #
#3051000000.0
07
#3064500000.0
b10000000 "
17
b00001110010 #
#3078000000.0
07
#3091500000.0
17
b00001110011 #
#3105000000.0
07
#3118500000.0
b00010000 "
17
b00001110100 #
#3132000000.0
07
#3145500000.0
17
b00001110101 #
#3159000000.0
07
#3172500000.0
b10000000 "
17
b00001110110 #
#3186000000.0
07
#3199500000.0
17
b00001110111 #
#3213000000.0
07
#3226500000.0
b00010000 "
17
b00001111000 #
#3240000000.0
07
#3253500000.0
17
b00001111001 #
#3267000000.0
07
#3280500000.0
b10000000 "
17
b00001111010 #
#3294000000.0
07
#3307500000.0
17
b00001111011 #
#3321000000.0
07
#3334500000.0
b00010000 "
17
b00001111100 #
#3348000000.0
07
#3361500000.0
17
b00001111101 #
#3375000000.0
07
#3388500000.0
b10000000 "
17
b00001111110 #
#3402000000.0
07
#3415500000.0
17
b00001111111 #
#3429000000.0
07
#3442500000.0
b00010000 "
17
b00010000000 #
#3456000000.0
07
#3469500000.0
17
b00010000001 #
#3483000000.0
07
#3496500000.0
b10000000 "
17
b00010000010 #
#3510000000.0
07
#3523500000.0
17
b00010000011 #
#3537000000.0
07
#3550500000.0
b00010000 "
17
b00010000100 #
#3564000000.0
07
#3577500000.0
17
b00010000101 #
#3591000000.0
07
#3604500000.0
b10000000 "
17
b00010000110 #
#3618000000.0
07
#3631500000.0
17
b00010000111 #
#3645000000.0
07
#3658500000.0
b00010000 "
17
b00010001000 #
#3672000000.0
07
#3685500000.0
17
b00010001001 #
#3699000000.0
07
#3712500000.0
b10000000 "
17
b00010001010 #
#3726000000.0
07
#3739500000.0
17
b00010001011 #
#3753000000.0
07
#3766500000.0
b00010000 "
17
b00010001100 #
#3780000000.0
07
#3793500000.0
17
b00010001101 #
#3807000000.0
07
#3820500000.0
b10000000 "
17
b00010001110 #
#3834000000.0
07
#3847500000.0
17
b00010001111 #
#3861000000.0
07
#3874500000.0
b00010000 "
17
b00010010000 #
#3888000000.0
07
#3901500000.0
17
b00010010001 #
#3915000000.0
07
#3928500000.0
b10000000 "
17
b00010010010 #
#3942000000.0
07
#3955500000.0
17
b00010010011 #
#3969000000.0
07
#3982500000.0
b00010000 "
17
b00010010100 #
#3996000000.0
07
#4009500000.0
17
b00010010101 #
#4023000000.0
07
#4036500000.0
b10000000 "
17
b00010010110 #
#4050000000.0
07
#4063500000.0
17
b00010010111 #
#4077000000.0
07
#4090500000.0
b00010000 "
17
b00010011000 #
#4104000000.0
07
#4117500000.0
17
b00010011001 #
#4131000000.0
07
#4144500000.0
b10000000 "
17
b00010011010 #
#4158000000.0
07
#4171500000.0
17
b00010011011 #
#4185000000.0
07
#4198500000.0
b00010000 "
17
b00010011100 #
#4212000000.0
07
#4225500000.0
17
b00010011101 #
#4239000000.0
07
#4252500000.0
b10000000 "
17
b00010011110 #
#4266000000.0
07
#4279500000.0
17
b00010011111 #
#4293000000.0
07
#4306500000.0
b00010000 "
17
b00010100000 #
#4320000000.0
07
#4333500000.0
17
b00010100001 #
#4347000000.0
07
#4360500000.0
b10000000 "
17
b00010100010 #
#4374000000.0
07
#4387500000.0
17
b00010100011 #
#4401000000.0
07
#4414500000.0
b00010000 "
17
b00010100100 #
#4428000000.0
07
#4441500000.0
17
b00010100101 #
#4455000000.0
07
#4468500000.0
b10000000 "
17
b00010100110 #
#4482000000.0
07
#4495500000.0
17
b00010100111 #
#4509000000.0
07
#4522500000.0
b00010000 "
17
b00010101000 #
#4536000000.0
07
#4549500000.0
17
b00010101001 #
#4563000000.0
07
#4576500000.0
b10000000 "
17
b00010101010 #
#4590000000.0
07
#4603500000.0
17
b00010101011 #
#4617000000.0
07
#4630500000.0
b00010000 "
17
b00010101100 #
#4644000000.0
07
#4657500000.0
17
b00010101101 #
#4671000000.0
07
#4684500000.0
b10000000 "
17
b00010101110 #
#4698000000.0
07
#4711500000.0
17
b00010101111 #
#4725000000.0
07
#4738500000.0
b00010000 "
17
b00010110000 #
#4752000000.0
07
#4765500000.0
17
b00010110001 #
#4779000000.0
07
#4792500000.0
b10000000 "
17
b00010110010 #
#4806000000.0
07
#4819500000.0
17
b00010110011 #
#4833000000.0
07
#4846500000.0
b00010000 "
17
b00010110100 #
#4860000000.0
07
#4873500000.0
17
b00010110101 #
#4887000000.0
07
#4900500000.0
b10000000 "
17
b00010110110 #
#4914000000.0
07
#4927500000.0
17
b00010110111 #
#4941000000.0
07
#4954500000.0
b00010000 "
17
b00010111000 #
#4968000000.0
07
#4981500000.0
17
b00010111001 #
#4995000000.0
07
#5008500000.0
b10000000 "
17
b00010111010 #
#5022000000.0
07
#5035500000.0
17
b00010111011 #
#5049000000.0
07
#5062500000.0
b00010000 "
17
b00010111100 #
#5076000000.0
07
#5089500000.0
17
b00010111101 #
#5103000000.0
07
#5116500000.0
b10000000 "
17
b00010111110 #
#5130000000.0
07
#5143500000.0
17
b00010111111 #
#5157000000.0
07
#5170500000.0
b00010000 "
17
b00011000000 #
#5184000000.0
07
#5197500000.0
17
b00011000001 #
#5211000000.0
07
#5224500000.0
b10000000 "
17
b00011000010 #
#5238000000.0
07
#5251500000.0
17
b00011000011 #
#5265000000.0
07
#5278500000.0
b00010000 "
17
b00011000100 #
#5292000000.0
07
#5305500000.0
17
b00011000101 #
#5319000000.0
07
#5332500000.0
b10000000 "
17
b00011000110 #
#5346000000.0
07
#5359500000.0
17
b00011000111 #
#5373000000.0
07
#5386500000.0
b00010000 "
17
b00011001000 #
#5400000000.0
07
#5413500000.0
17
b00011001001 #
#5427000000.0
07
#5440500000.0
b10000000 "
17
b00011001010 #
#5454000000.0
07
#5467500000.0
17
b00011001011 #
#5481000000.0
07
#5494500000.0
b00010000 "
17
b00011001100 #
#5508000000.0
07
#5521500000.0
17
b00011001101 #
#5535000000.0
07
#5548500000.0
b10000000 "
17
b00011001110 #
#5562000000.0
07
#5575500000.0
17
b00011001111 #
#5589000000.0
07
#5602500000.0
b00010000 "
17
b00011010000 #
#5616000000.0
07
#5629500000.0
17
b00011010001 #
#5643000000.0
07
#5656500000.0
b10000000 "
17
b00011010010 #
#5670000000.0
07
#5683500000.0
17
b00011010011 #
#5697000000.0
07
#5710500000.0
b00010000 "
17
b00011010100 #
#5724000000.0
07
#5737500000.0
17
b00011010101 #
#5751000000.0
07
#5764500000.0
b10000000 "
17
b00011010110 #
#5778000000.0
07
#5791500000.0
17
b00011010111 #
#5805000000.0
07
#5818500000.0
b00010000 "
17
b00011011000 #
#5832000000.0
07
#5845500000.0
17
b00011011001 #
#5859000000.0
07
#5872500000.0
b10000000 "
17
b00011011010 #
#5886000000.0
07
#5899500000.0
17
b00011011011 #
#5913000000.0
07
#5926500000.0
b00010000 "
17
b00011011100 #
#5940000000.0
07
#5953500000.0
17
b00011011101 #
#5967000000.0
07
#5980500000.0
b10000000 "
17
b00011011110 #
#5994000000.0
07
#6007500000.0
17
b00011011111 #
#6021000000.0
07
#6034500000.0
b00010000 "
17
b00011100000 #
#6048000000.0
07
#6061500000.0
17
b00011100001 #
#6075000000.0
07
#6088500000.0
b10000000 "
17
b00011100010 #
#6102000000.0
07
#6115500000.0
17
b00011100011 #
#6129000000.0
07
#6142500000.0
b00010000 "
17
b00011100100 #
#6156000000.0
07
#6169500000.0
17
b00011100101 #
#6183000000.0
07
#6196500000.0
b10000000 "
17
b00011100110 #
#6210000000.0
07
#6223500000.0
17
b00011100111 #
#6237000000.0
07
#6250500000.0
b00010000 "
17
b00011101000 #
#6264000000.0
07
#6277500000.0
17
b00011101001 #
#6291000000.0
07
#6304500000.0
b10000000 "
17
b00011101010 #
#6318000000.0
07
#6331500000.0
17
b00011101011 #
#6345000000.0
07
#6358500000.0
b00010000 "
17
b00011101100 #
#6372000000.0
07
#6385500000.0
17
b00011101101 #
#6399000000.0
07
#6412500000.0
b10000000 "
17
b00011101110 #
#6426000000.0
07
#6439500000.0
17
b00011101111 #
#6453000000.0
07
#6466500000.0
b00010000 "
17
b00011110000 #
#6480000000.0
07
#6493500000.0
17
b00011110001 #
#6507000000.0
07
#6520500000.0
b10000000 "
17
b00011110010 #
#6534000000.0
07
#6547500000.0
17
b00011110011 #
#6561000000.0
07
#6574500000.0
b00010000 "
17
b00011110100 #
#6588000000.0
07
#6601500000.0
17
b00011110101 #
#6615000000.0
07
#6628500000.0
b10000000 "
17
b00011110110 #
#6642000000.0
07
#6655500000.0
17
b00011110111 #
#6669000000.0
07
#6682500000.0
b00010000 "
17
b00011111000 #
#6696000000.0
07
#6709500000.0
17
b00011111001 #
#6723000000.0
07
#6736500000.0
b10000000 "
17
b00011111010 #
#6750000000.0
07
#6763500000.0
17
b00011111011 #
#6777000000.0
07
#6790500000.0
b00010000 "
17
b00011111100 #
#6804000000.0
07
#6817500000.0
17
b00011111101 #
#6831000000.0
07
#6844500000.0
b10000000 "
17
b00011111110 #
#6858000000.0
07
#6871500000.0
17
b00011111111 #
#6885000000.0
07
#6898500000.0
b00010000 "
17
b00100000000 #
#6912000000.0
07
#6925500000.0
17
b00100000001 #
#6939000000.0
07
#6952500000.0
b10000000 "
17
b00100000010 #
#6966000000.0
07
#6979500000.0
17
b00100000011 #
#6993000000.0
07
#7006500000.0
b00010000 "
17
b00100000100 #
#7020000000.0
07
#7033500000.0
17
b00100000101 #
#7047000000.0
07
#7060500000.0
b10000000 "
17
b00100000110 #
#7074000000.0
07
#7087500000.0
17
b00100000111 #
#7101000000.0
07
#7114500000.0
b00010000 "
17
b00100001000 #
#7128000000.0
07
#7141500000.0
17
b00100001001 #
#7155000000.0
07
#7168500000.0
b10000000 "
17
b00100001010 #
#7182000000.0
07
#7195500000.0
17
b00100001011 #
#7209000000.0
07
#7222500000.0
b00010000 "
17
b00100001100 #
#7236000000.0
07
#7249500000.0
17
b00100001101 #
#7263000000.0
07
#7276500000.0
b10000000 "
17
b00100001110 #
#7290000000.0
07
#7303500000.0
17
b00100001111 #
#7317000000.0
07
#7330500000.0
b00010000 "
17
b00100010000 #
#7344000000.0
07
#7357500000.0
17
b00100010001 #
#7371000000.0
07
#7384500000.0
b10000000 "
17
b00100010010 #
#7398000000.0
07
#7411500000.0
17
b00100010011 #
#7425000000.0
07
#7438500000.0
b00010000 "
17
b00100010100 #
#7452000000.0
07
#7465500000.0
17
b00100010101 #
#7479000000.0
07
#7492500000.0
b10000000 "
17
b00100010110 #
#7506000000.0
07
#7519500000.0
17
b00100010111 #
#7533000000.0
07
#7546500000.0
b00010000 "
17
b00100011000 #
#7560000000.0
07
#7573500000.0
17
b00100011001 #
#7587000000.0
07
#7600500000.0
b10000000 "
17
b00100011010 #
#7614000000.0
07
#7627500000.0
b00110101001110100101001101000101010011100100010001011111010100110100000101010110010111110100011001000110 6
17
b00100011011 #
#7641000000.0
07
#7654500000.0
b11111111 "
17
b00100011100 #
b0101001101000101010011100100010001011111010100110100000101010110010111110100011001000110 5
b001101100011101001010011010001010100111001000100010111110101001101000001010101100101111100110000001100000101111100110001 6
0.
1/
#7668000000.0
07
#7681500000.0
b00000000 "
17
b00100011101 #
b01010011010001010100111001000100010111110101001101000001010101100101111100110000001100000101111100110001 5
b001101110011101001010011010001010100111001000100010111110101001101000001010101100101111100110000001100000101111100110010 6
#7695000000.0
07
#7708500000.0
b00111000001110100101001101000101010011100100010001011111010100110100000101010110010111110101100001011001 6
17
b00100011110 #
b01010011010001010100111001000100010111110101001101000001010101100101111100110000001100000101111100110010 5
#7722000000.0
07
#7735500000.0
b10100100 "
17
b00100011111 #
b0101001101000101010011100100010001011111010100110100000101010110010111110101100001011001 5
b0011100100111010010000010100001101010100010010010101011001000101010111110101011001001001010001000100010101001111 6
#7749000000.0
07
#7762500000.0
10
b00010000 "
17
b00100100000 #
b010000010100001101010100010010010101011001000101010111110101011001001001010001000100010101001111 5
0/
#7776000000.0
07
#7789500000.0
17
b00100100001 #
#7803000000.0
07
#7816500000.0
b10000000 "
17
b00100100010 #
#7830000000.0
07
#7843500000.0
17
b00100100011 #
#7857000000.0
07
#7870500000.0
b00010000 "
17
b00100100100 #
#7884000000.0
07
#7897500000.0
17
b00100100101 #
#7911000000.0
07
#7924500000.0
b10000000 "
17
b00100100110 #
#7938000000.0
07
#7951500000.0
17
b00100100111 #
#7965000000.0
07
#7978500000.0
b00010000 "
17
b00100101000 #
#7992000000.0
07
#8005500000.0
17
b00100101001 #
#8019000000.0
07
#8032500000.0
b10000000 "
17
b00100101010 #
#8046000000.0
07
#8059500000.0
17
b00100101011 #
#8073000000.0
07
#8086500000.0
b00010000 "
17
b00100101100 #
#8100000000.0
07
#8113500000.0
17
b00100101101 #
#8127000000.0
07
#8140500000.0
b10000000 "
17
b00100101110 #
#8154000000.0
07
#8167500000.0
17
b00100101111 #
#8181000000.0
07
#8194500000.0
b00010000 "
17
b00100110000 #
#8208000000.0
07
#8221500000.0
17
b00100110001 #
#8235000000.0
07
#8248500000.0
b10000000 "
17
b00100110010 #
#8262000000.0
07
#8275500000.0
17
b00100110011 #
#8289000000.0
07
#8302500000.0
b00010000 "
17
b00100110100 #
#8316000000.0
07
#8329500000.0
17
b00100110101 #
#8343000000.0
07
#8356500000.0
b10000000 "
17
b00100110110 #
#8370000000.0
07
#8383500000.0
17
b00100110111 #
#8397000000.0
07
#8410500000.0
b00010000 "
17
b00100111000 #
#8424000000.0
07
#8437500000.0
17
b00100111001 #
#8451000000.0
07
#8464500000.0
b10000000 "
17
b00100111010 #
#8478000000.0
07
#8491500000.0
17
b00100111011 #
#8505000000.0
07
#8518500000.0
b00010000 "
17
b00100111100 #
#8532000000.0
07
#8545500000.0
17
b00100111101 #
#8559000000.0
07
#8572500000.0
b10000000 "
17
b00100111110 #
#8586000000.0
07
#8599500000.0
17
b00100111111 #
#8613000000.0
07
#8626500000.0
b00010000 "
17
b00101000000 #
#8640000000.0
07
#8653500000.0
17
b00101000001 #
#8667000000.0
07
#8680500000.0
b10000000 "
17
b00101000010 #
#8694000000.0
07
#8707500000.0
17
b00101000011 #
#8721000000.0
07
#8734500000.0
b00010000 "
17
b00101000100 #
#8748000000.0
07
#8761500000.0
17
b00101000101 #
#8775000000.0
07
#8788500000.0
b10000000 "
17
b00101000110 #
#8802000000.0
07
#8815500000.0
17
b00101000111 #
#8829000000.0
07
#8842500000.0
b00010000 "
17
b00101001000 #
#8856000000.0
07
#8869500000.0
17
b00101001001 #
#8883000000.0
07
#8896500000.0
b10000000 "
17
b00101001010 #
#8910000000.0
07
#8923500000.0
17
b00101001011 #
#8937000000.0
07
#8950500000.0
b00010000 "
17
b00101001100 #
#8964000000.0
07
#8977500000.0
17
b00101001101 #
#8991000000.0
07
#9004500000.0
b10000000 "
17
b00101001110 #
#9018000000.0
07
#9031500000.0
17
b00101001111 #
#9045000000.0
07
#9058500000.0
b00010000 "
17
b00101010000 #
#9072000000.0
07
#9085500000.0
17
b00101010001 #
#9099000000.0
07
#9112500000.0
b10000000 "
17
b00101010010 #
#9126000000.0
07
#9139500000.0
17
b00101010011 #
#9153000000.0
07
#9166500000.0
b00010000 "
17
b00101010100 #
#9180000000.0
07
#9193500000.0
17
b00101010101 #
#9207000000.0
07
#9220500000.0
b10000000 "
17
b00101010110 #
#9234000000.0
07
#9247500000.0
17
b00101010111 #
#9261000000.0
07
#9274500000.0
b00010000 "
17
b00101011000 #
#9288000000.0
07
#9301500000.0
17
b00101011001 #
#9315000000.0
07
#9328500000.0
b10000000 "
17
b00101011010 #
#9342000000.0
07
#9355500000.0
17
b00101011011 #
#9369000000.0
07
#9382500000.0
b00010000 "
17
b00101011100 #
#9396000000.0
07
#9409500000.0
17
b00101011101 #
#9423000000.0
07
#9436500000.0
b10000000 "
17
b00101011110 #
#9450000000.0
07
#9463500000.0
17
b00101011111 #
#9477000000.0
07
#9490500000.0
b00010000 "
17
b00101100000 #
#9504000000.0
07
#9517500000.0
17
b00101100001 #
#9531000000.0
07
#9544500000.0
b10000000 "
17
b00101100010 #
#9558000000.0
07
#9571500000.0
17
b00101100011 #
#9585000000.0
07
#9598500000.0
b00010000 "
17
b00101100100 #
#9612000000.0
07
#9625500000.0
17
b00101100101 #
#9639000000.0
07
#9652500000.0
b10000000 "
17
b00101100110 #
#9666000000.0
07
#9679500000.0
17
b00101100111 #
#9693000000.0
07
#9706500000.0
b00010000 "
17
b00101101000 #
#9720000000.0
07
#9733500000.0
17
b00101101001 #
#9747000000.0
07
#9760500000.0
b10000000 "
17
b00101101010 #
#9774000000.0
07
#9787500000.0
17
b00101101011 #
#9801000000.0
07
#9814500000.0
b00010000 "
17
b00101101100 #
#9828000000.0
07
#9841500000.0
17
b00101101101 #
#9855000000.0
07
#9868500000.0
b10000000 "
17
b00101101110 #
#9882000000.0
07
#9895500000.0
17
b00101101111 #
#9909000000.0
07
#9922500000.0
b00010000 "
17
b00101110000 #
#9936000000.0
07
#9949500000.0
17
b00101110001 #
#9963000000.0
07
#9976500000.0
b10000000 "
17
b00101110010 #
#9990000000.0
07
#10003500000.0
17
b00101110011 #
#10017000000.0
07
#10030500000.0
b00010000 "
17
b00101110100 #
#10044000000.0
07
#10057500000.0
17
b00101110101 #
#10071000000.0
07
#10084500000.0
b10000000 "
17
b00101110110 #
#10098000000.0
07
#10111500000.0
17
b00101110111 #
#10125000000.0
07
#10138500000.0
b00010000 "
17
b00101111000 #
#10152000000.0
07
#10165500000.0
17
b00101111001 #
#10179000000.0
07
#10192500000.0
b10000000 "
17
b00101111010 #
#10206000000.0
07
#10219500000.0
17
b00101111011 #
#10233000000.0
07
#10246500000.0
b00010000 "
17
b00101111100 #
#10260000000.0
07
#10273500000.0
17
b00101111101 #
#10287000000.0
07
#10300500000.0
b10000000 "
17
b00101111110 #
#10314000000.0
07
#10327500000.0
17
b00101111111 #
#10341000000.0
07
#10354500000.0
b00010000 "
17
b00110000000 #
#10368000000.0
07
#10381500000.0
17
b00110000001 #
#10395000000.0
07
#10408500000.0
b10000000 "
17
b00110000010 #
#10422000000.0
07
#10435500000.0
17
b00110000011 #
#10449000000.0
07
#10462500000.0
b00010000 "
17
b00110000100 #
#10476000000.0
07
#10489500000.0
17
b00110000101 #
#10503000000.0
07
#10516500000.0
b10000000 "
17
b00110000110 #
#10530000000.0
07
#10543500000.0
17
b00110000111 #
#10557000000.0
07
#10570500000.0
b00010000 "
17
b00110001000 #
#10584000000.0
07
#10597500000.0
17
b00110001001 #
#10611000000.0
07
#10624500000.0
b10000000 "
17
b00110001010 #
#10638000000.0
07
#10651500000.0
17
b00110001011 #
#10665000000.0
07
#10678500000.0
b00010000 "
17
b00110001100 #
#10692000000.0
07
#10705500000.0
17
b00110001101 #
#10719000000.0
07
#10732500000.0
b10000000 "
17
b00110001110 #
#10746000000.0
07
#10759500000.0
17
b00110001111 #
#10773000000.0
07
#10786500000.0
b00010000 "
17
b00110010000 #
#10800000000.0
07
#10813500000.0
17
b00110010001 #
#10827000000.0
07
#10840500000.0
b10000000 "
17
b00110010010 #
#10854000000.0
07
#10867500000.0
17
b00110010011 #
#10881000000.0
07
#10894500000.0
b00010000 "
17
b00110010100 #
#10908000000.0
07
#10921500000.0
17
b00110010101 #
#10935000000.0
07
#10948500000.0
b10000000 "
17
b00110010110 #
#10962000000.0
07
#10975500000.0
17
b00110010111 #
#10989000000.0
07
#11002500000.0
b00010000 "
17
b00110011000 #
#11016000000.0
07
#11029500000.0
17
b00110011001 #
#11043000000.0
07
#11056500000.0
b10000000 "
17
b00110011010 #
#11070000000.0
07
#11083500000.0
17
b00110011011 #
#11097000000.0
07
#11110500000.0
b00010000 "
17
b00110011100 #
#11124000000.0
07
#11137500000.0
17
b00110011101 #
#11151000000.0
07
#11164500000.0
b10000000 "
17
b00110011110 #
#11178000000.0
07
#11191500000.0
17
b00110011111 #
#11205000000.0
07
#11218500000.0
b00010000 "
17
b00110100000 #
#11232000000.0
07
#11245500000.0
17
b00110100001 #
#11259000000.0
07
#11272500000.0
b10000000 "
17
b00110100010 #
#11286000000.0
07
#11299500000.0
17
b00110100011 #
#11313000000.0
07
#11326500000.0
b00010000 "
17
b00110100100 #
#11340000000.0
07
#11353500000.0
17
b00110100101 #
#11367000000.0
07
#11380500000.0
b10000000 "
17
b00110100110 #
#11394000000.0
07
#11407500000.0
17
b00110100111 #
#11421000000.0
07
#11434500000.0
b00010000 "
17
b00110101000 #
#11448000000.0
07
#11461500000.0
17
b00110101001 #
#11475000000.0
07
#11488500000.0
b10000000 "
17
b00110101010 #
#11502000000.0
07
#11515500000.0
17
b00110101011 #
#11529000000.0
07
#11542500000.0
b00010000 "
17
b00110101100 #
#11556000000.0
07
#11569500000.0
17
b00110101101 #
#11583000000.0
07
#11596500000.0
b10000000 "
17
b00110101110 #
#11610000000.0
07
#11623500000.0
17
b00110101111 #
#11637000000.0
07
#11650500000.0
b00010000 "
17
b00110110000 #
#11664000000.0
07
#11677500000.0
17
b00110110001 #
#11691000000.0
07
#11704500000.0
b10000000 "
17
b00110110010 #
#11718000000.0
07
